#downtownX, downtownY, pathDXfromDowntown, pathDYfromDowntown,  r, travelDist
0,0,-10.202,20.029,22.478,28.908
0,0,-12.208,23,26.039,35.361
0,0,-10.172,4.7178,11.213,17.692
0,0,8.2403,26.54,27.79,34.671
0,0,-20.142,-15.12,25.186,29.427
0,0,-19.388,-9.3556,21.527,29.922
0,0,7.7231,14.047,16.03,23.379
0,0,-13.443,-6.0707,14.75,21.588
0,0,-3.3473,4.3109,5.4579,6.634
0,0,-1.3202,7.655,7.768,16.209
0,0,21.952,19.283,29.219,35.173
0,0,-12.127,8.2798,14.684,25.94
0,0,16.874,14.33,22.138,27.606
0,0,-13.793,19.881,24.197,32.059
0,0,1.5893,10.504,10.624,18.374
0,0,6.1958,23.103,23.919,29.108
0,0,-9.1763,21.755,23.611,33.745
0,0,4.4099,19.891,20.374,28.139
0,0,14.9,18.287,23.589,35.022
0,0,-17.604,-2.2073,17.741,27.455
0,0,-4.1114,4.4374,6.0493,10.445
0,0,-5.5748,11.697,12.958,18.937
0,0,3.2862,14.052,14.431,20.452
0,0,-19.536,1.9027,19.629,36.258
0,0,15.403,18.769,24.28,34.012
0,0,-15.632,3.9423,16.122,27.995
0,0,3.5342,4.3999,5.6436,8.744
0,0,-0.61659,12.639,12.654,15.201
0,0,-20.062,9.4255,22.166,41.712
0,0,-11.49,4.4788,12.332,19.093
0,0,1.8336,12.639,12.771,20.898
0,0,22.084,19.182,29.252,35.408
0,0,-5.3587,5.1293,7.4179,11.401
0,0,-0.63571,23.464,23.473,29.046
0,0,7.6004,26.462,27.531,34.047
0,0,-24.728,-1.6608,24.784,40.997
0,0,3.1543,11.273,11.706,24.261
0,0,-14.934,-6.9547,16.474,22.522
0,0,-6.1857,26.712,27.419,37.93
0,0,8.0126,13.125,15.377,22.935
0,0,-18.153,12.239,21.894,36.463
0,0,-13.193,2.7458,13.475,28.703
0,0,-14.396,15.995,21.519,29.388
0,0,-11.929,-7.9991,14.363,18.34
0,0,-16.732,19.507,25.7,37.054
0,0,-26.206,1.7945,26.267,42.445
0,0,-21.124,11.877,24.234,40.858
0,0,-2.8546,9.5974,10.013,14.282
0,0,-12.948,9.9513,16.331,27.287
0,0,-16.44,19.95,25.851,36.52
0,0,1.2803,12.326,12.392,14.739
0,0,14.265,19.794,24.399,36.588
0,0,-9.6528,13.906,16.928,23.919
0,0,-9.6601,8.3918,12.796,25.454
0,0,-13.992,-9.3316,16.818,21.656
0,0,-7.3148,9.7395,12.18,20.62
0,0,21.732,20.079,29.588,36.86
0,0,10.86,14.944,18.473,32.755
0,0,-10.178,9.2387,13.746,23.123
0,0,2.8969,7.1211,7.6878,11.016
0,0,-17.598,2.7611,17.813,36.249
0,0,7.5747,6.9696,10.293,12.442
0,0,5.8481,19.538,20.394,28.183
0,0,-11.328,14.568,18.454,27.416
0,0,-18.091,-5.4236,18.887,29.952
0,0,-12.719,-3.4173,13.17,20.556
0,0,-9.0167,9.9589,13.434,22.168
0,0,-22.943,-6.7815,23.924,36.521
0,0,-3.4688,10.119,10.697,15.145
0,0,-22.247,-8.5103,23.819,34.382
0,0,6.3673,28.46,29.164,35.175
0,0,3.6722,8.685,9.4294,14.938
0,0,3.905,10.951,11.626,23.694
0,0,-2.5545,10.75,11.049,17.221
0,0,-1.3187,13.054,13.12,21.845
0,0,2.8372,7.4705,7.9911,11.64
0,0,-14.196,5.0086,15.053,30.455
0,0,1.8826,22.458,22.536,30.297
0,0,0.8785,10.567,10.604,15.015
0,0,-13.85,-8.6525,16.331,21.853
0,0,-13.484,6.4763,14.958,32.145
0,0,4.596,9.9558,10.965,15.782
0,0,-19.253,-0.93525,19.276,30.832
0,0,-1.5266,24.925,24.972,30.867
0,0,-14.336,-6.7382,15.84,21.086
0,0,-1.0142,5.9645,6.0502,9.026
0,0,-0.0015219,19.123,19.123,24.399
0,0,18.595,22.226,28.979,38.171
0,0,-10.973,-4.4324,11.834,18.869
0,0,-9.7562,4.5671,10.772,17.797
0,0,11.331,15.41,19.128,32.371
0,0,-5.7937,28.588,29.169,42.311
0,0,19.739,17.598,26.445,31.868
0,0,-7.3481,-3.9068,8.3221,16.072
0,0,2.3458,18.203,18.354,25.793
0,0,13.319,23.639,27.133,35.441
0,0,-15.618,2.6254,15.837,27.19
0,0,-13.299,10.486,16.935,29.277
0,0,-24.555,6.7766,25.473,43.179
0,0,3.4437,12.795,13.251,19.722
0,0,2.9449,19.182,19.406,27.575
0,0,-14.512,-8.2109,16.674,21.685
0,0,8.7393,10.453,13.625,17.147
0,0,9.0815,9.7499,13.324,16.134
0,0,11.005,9.0823,14.269,17.765
0,0,-14.735,3.964,15.259,28.848
0,0,-9.4793,-5.5162,10.967,16.247
0,0,-1.2566,8.824,8.913,14.93
0,0,11.955,21.52,24.618,33.774
0,0,0.2148,17.896,17.897,25.713
0,0,-3.5225,11.717,12.235,20.325
0,0,-6.552,6.8346,9.4678,24.363
0,0,2.6637,20.923,21.091,30.095
0,0,-17.86,-4.3808,18.389,28.562
0,0,4.0784,3.986,5.7028,7.642
totalTravelDist=2964.926
roadLength=577.7439
sumNormTravelDist=174.5538
n=115
