#downtownX, downtownY, pathDXfromDowntown, pathDYfromDowntown,  r, travelDist
0,0,-10.249,20.168,22.623,26.912
0,0,-12.278,22.986,26.06,30.183
0,0,-10.139,4.7637,11.202,17.339
0,0,1.2105,7.7337,7.8278,11.743
0,0,8.2602,26.408,27.67,32.393
0,0,-3.8311,-4.6575,6.0307,8.508
0,0,-19.958,-15.328,25.165,43.797
0,0,-19.393,-9.2688,21.494,30.571
0,0,7.7324,14.057,16.044,26.364
0,0,-13.461,-6.0722,14.767,27.981
0,0,-3.4183,-5.1488,6.1802,8.853
0,0,-3.3152,4.3742,5.4885,7.503
0,0,-9.8,-17.192,19.789,34.335
0,0,-6.2824,-8.0531,10.214,13.211
0,0,-1.3767,7.7467,7.868,10.12
0,0,-12.393,8.0906,14.8,21.353
0,0,-7.952,-6.6112,10.341,13.028
0,0,16.79,14.54,22.211,25.581
0,0,-13.808,19.891,24.214,30.889
0,0,-7.6845,-23.626,24.844,36.84
0,0,1.6887,10.484,10.619,17.506
0,0,6.2109,23.16,23.978,28.028
0,0,-9.2954,21.707,23.614,27.988
0,0,4.3919,19.876,20.355,24.188
0,0,9.2142,-22.951,24.732,31.021
0,0,6.7832,-19.159,20.324,27.884
0,0,11.349,-24.433,26.94,35.953
0,0,14.795,18.304,23.536,35.701
0,0,7.7397,-13.32,15.405,20.844
0,0,-3.9665,4.3788,5.9082,6.996
0,0,0.38522,-7.6166,7.6264,10.32
0,0,2.5298,-17.231,17.416,21.945
0,0,-5.58,11.707,12.969,15.373
0,0,-0.78375,-10.428,10.457,15.584
0,0,-2.3999,-6.5142,6.9422,10.453
0,0,17.995,-18.39,25.729,38.121
0,0,3.2696,14.031,14.407,18.692
0,0,0.018594,-11.618,11.618,15.237
0,0,-19.595,1.9346,19.69,29.599
0,0,4.2803,-7.196,8.3727,14.842
0,0,17.319,-10.293,20.147,42.872
0,0,15.462,18.622,24.204,36.859
0,0,-15.642,3.9328,16.129,32.974
0,0,3.5587,4.4112,5.6677,7.134
0,0,-0.57643,12.673,12.686,19.462
0,0,-20.064,9.5488,22.22,37.528
0,0,-11.338,4.5195,12.205,16.635
0,0,1.9331,12.591,12.738,16.424
0,0,8.0229,-11.671,14.162,20.202
0,0,-5.4662,5.1162,7.487,10.31
0,0,-17.387,-16.456,23.939,42.58
0,0,-0.73676,23.559,23.57,32.355
0,0,-2.8011,-15.31,15.564,28.069
0,0,10.01,-14.896,17.947,27.151
0,0,7.6292,26.473,27.55,31.956
0,0,-4.4688,-27.848,28.204,36.701
0,0,-24.51,-1.6414,24.565,32.968
0,0,3.2669,11.089,11.56,15.657
0,0,18.676,-14.727,23.784,43.325
0,0,-14.817,-6.91,16.349,29.766
0,0,-9.9576,2.7459,10.329,14.383
0,0,-18.246,-17.631,25.372,43.758
0,0,-6.1548,26.598,27.301,31.723
0,0,-15.329,-25.479,29.734,42.197
0,0,7.909,12.963,15.185,24.406
0,0,-18.241,12.312,22.007,33.72
0,0,-3.5882,-7.5956,8.4005,16.755
0,0,-13.215,2.7061,13.49,23.3
0,0,-14.383,15.993,21.509,30.622
0,0,-11.704,-7.6924,14.006,30.59
0,0,-1.5508,-5.0821,5.3135,7.529
0,0,-16.828,19.601,25.834,37.159
0,0,-26.331,1.5414,26.376,34.614
0,0,6.6899,-12.378,14.07,19.757
0,0,-21.104,11.848,24.202,39.292
0,0,-2.8129,9.7179,10.117,13.366
0,0,-7.4123,-9.3111,11.901,15.464
0,0,-13.019,10.088,16.47,30.431
0,0,-16.529,19.905,25.873,37.103
0,0,-7.9928,-11.291,13.834,17.773
0,0,1.3966,12.309,12.388,16.734
0,0,7.0481,3.2335,7.7544,11.962
0,0,-4.8418,-9.1803,10.379,18.748
0,0,14.153,20.002,24.503,36.883
0,0,-9.6912,13.9,16.945,24.334
0,0,2.951,-28.728,28.88,37.011
0,0,-9.6313,8.4029,12.782,16.271
0,0,14.078,-15.587,21.003,35.173
0,0,-14.017,-9.3449,16.847,35.579
0,0,-7.3407,9.6126,12.095,13.648
0,0,1.8234,-17.765,17.858,22.667
0,0,1.1589,-17.06,17.099,21.807
0,0,11.009,14.97,18.582,22.367
0,0,-10.176,9.2116,13.726,16.821
0,0,2.9256,7.1486,7.7241,10.203
0,0,1.4543,-17.689,17.749,23.052
0,0,0.058409,-11.754,11.754,14.946
0,0,-2.7726,-17.534,17.751,24.717
0,0,-17.641,2.7261,17.85,30.184
0,0,5.7957,19.587,20.426,26.958
0,0,-11.182,14.526,18.332,25.402
0,0,-2.577,-28.996,29.11,38.287
0,0,-18.161,-5.5775,18.998,25.57
0,0,-12.712,-3.4142,13.162,21.599
0,0,-4.884,-20.1,20.684,29.697
0,0,-9.0199,9.9584,13.436,16.1
0,0,14.583,-18.053,23.207,32.889
0,0,0.74719,-7.177,7.2157,10.212
0,0,-22.871,-6.8215,23.866,31.952
0,0,-22.282,-8.5131,23.853,34.607
0,0,6.5568,28.546,29.289,33.55
0,0,3.5574,-15.754,16.15,20.406
0,0,4.191,-11.837,12.557,15.424
0,0,3.6314,8.7739,9.4957,12.864
0,0,3.9153,10.883,11.566,14.771
totalTravelDist=2832.044
roadLength=643.5197
sumNormTravelDist=165.8138
n=115
