#downtownX, downtownY, pathDXfromDowntown, pathDYfromDowntown,  r, travelDist
0,0,-10.194,20.185,22.613,34.017
0,0,-27.209,8.0571,28.376,31.568
0,0,-10.177,4.9115,11.3,13.326
0,0,14.656,3.3277,15.029,18.474
0,0,1.2141,7.722,7.8169,10.648
0,0,11.692,-2.2049,11.898,18.069
0,0,-3.7979,-4.7158,6.0549,9.188
0,0,-20.157,-14.52,24.842,35.156
0,0,-19.457,-9.4126,21.614,29.887
0,0,7.7242,14.049,16.032,19.983
0,0,-13.47,-6.4018,14.914,20.384
0,0,-3.3711,-5.1448,6.1509,9.193
0,0,13.595,-2.7363,13.868,20.602
0,0,-3.3381,4.399,5.5221,6.383
0,0,-9.8139,-17.278,19.871,27.67
0,0,-6.2812,-7.9626,10.142,14.832
0,0,-1.3425,7.7712,7.8863,12.256
0,0,22.393,18.577,29.096,34.795
0,0,-12.178,8.2533,14.711,16.726
0,0,-8.16,-6.6133,10.503,15.342
0,0,16.833,14.646,22.313,26.717
0,0,-14.1,19.791,24.3,30.212
0,0,-7.4244,-23.635,24.774,31.678
0,0,1.6111,10.581,10.703,13.926
0,0,-9.2377,21.824,23.698,33.05
0,0,4.467,19.849,20.346,24.308
0,0,4.1782,-2.7588,5.0068,6.099
0,0,9.0994,-23.223,24.942,27.681
0,0,6.7683,-19.189,20.347,23.597
0,0,11.094,-24.471,26.868,29.954
0,0,10.794,-6.7595,12.736,17.358
0,0,24.344,-12.839,27.523,33.322
0,0,-17.776,-2.2315,17.916,20.852
0,0,7.5399,-13.379,15.357,17.329
0,0,-3.9676,4.3435,5.8829,6.833
0,0,0.30438,-7.6734,7.6794,8.013
0,0,2.2545,-17.227,17.374,20.24
0,0,-5.5846,11.697,12.961,19.581
0,0,20.015,3.7333,20.36,26.968
0,0,-0.77964,-10.34,10.369,13.374
0,0,-2.5605,-6.52,7.0047,9.702
0,0,13.834,5.7537,14.982,20.083
0,0,18.253,-18.431,25.94,28.021
0,0,3.2764,13.991,14.369,20.143
0,0,16.662,4.5363,17.269,24.454
0,0,-0.15044,-11.579,11.58,12.378
0,0,-19.382,1.8929,19.474,22.099
0,0,10.816,-10.377,14.989,18.147
0,0,4.33,-7.1,8.3162,9.603
0,0,17.551,-9.8113,20.107,24.082
0,0,-15.342,3.9465,15.841,20.115
0,0,3.5085,4.3884,5.6185,9.335
0,0,8.8005,6.4817,10.93,15.967
0,0,-0.59678,12.668,12.682,16.429
0,0,-20.23,9.4241,22.318,25.946
0,0,17.889,1.7026,17.969,22.827
0,0,-11.354,4.5147,12.219,16.692
0,0,16.915,8.3626,18.869,29.52
0,0,1.9893,12.586,12.742,17.092
0,0,8.306,-11.931,14.537,15.521
0,0,22.393,18.577,29.096,34.795
0,0,-5.4496,5.1305,7.4847,8.914
0,0,-17.899,-16.412,24.284,34.795
0,0,15.193,-1.0513,15.229,19.761
0,0,-26.78,7.2546,27.745,31.953
0,0,-0.42767,23.51,23.514,25.651
0,0,-2.637,-15.171,15.399,18.45
0,0,10.214,-14.689,17.891,20.516
0,0,-4.7963,-27.892,28.302,33.038
0,0,20.778,-7.2429,22.004,25.963
0,0,-24.606,-1.5887,24.658,27.058
0,0,3.1838,11.117,11.564,16.844
0,0,18.735,-14.696,23.812,27.229
0,0,-9.7402,2.753,10.122,13.331
0,0,19.512,9.7487,21.812,31.114
0,0,7.8978,13.021,15.229,19.171
0,0,-18.142,12.259,21.895,25.147
0,0,-3.3635,-7.6185,8.3279,12.231
0,0,12.894,1.9934,13.047,16.423
0,0,-12.947,2.7688,13.24,16.537
0,0,-14.4,16.15,21.638,27.365
0,0,-16.527,19.367,25.46,30.104
0,0,-26.271,1.6104,26.32,28.715
0,0,6.7532,-12.371,14.094,17.524
0,0,-21.35,11.898,24.441,28.716
0,0,-2.8512,9.5784,9.9938,14.701
0,0,-7.3552,-9.3087,11.864,17.778
0,0,-12.999,9.9501,16.37,21.136
0,0,-16.527,19.367,25.46,30.104
0,0,-7.9969,-11.184,13.749,20.118
0,0,1.3044,12.284,12.353,16.115
0,0,15.811,0.10744,15.811,19.58
0,0,7.0634,3.3768,7.8291,12.755
0,0,-4.941,-9.1949,10.438,14.74
0,0,10.761,-0.57145,10.776,16.33
0,0,16.754,0.89343,16.777,20.879
0,0,2.964,-28.832,28.984,32.356
0,0,-9.8321,8.5541,13.032,15.081
0,0,13.934,-15.337,20.721,22.481
0,0,-13.996,-9.6284,16.988,24.154
0,0,-7.3769,9.6115,12.116,15.309
0,0,1.8284,-17.572,17.667,19.472
0,0,1.1139,-16.769,16.806,17.946
0,0,1.1775,-14.355,14.404,15.591
0,0,11.014,15.014,18.62,23.184
0,0,-10.158,9.255,13.742,15.226
0,0,11.983,4.3138,12.736,16.78
0,0,2.9131,7.1408,7.7121,12.244
0,0,17.026,7.9061,18.772,28.458
0,0,1.451,-17.849,17.908,19.368
0,0,-0.1508,-11.702,11.703,12.501
0,0,-2.8252,-17.587,17.812,21.051
0,0,-17.766,2.7386,17.976,21.327
0,0,7.6023,6.9667,10.312,14.691
0,0,5.4198,19.557,20.294,26.577
totalTravelDist=2377.125
roadLength=597.9037
sumNormTravelDist=147.0033
n=115
