#downtownX, downtownY, pathDXfromDowntown, pathDYfromDowntown,  r, travelDist
0,0,8.9617,-3.6719,9.6848,17.304
0,0,-10.253,20.159,22.617,29.371
0,0,-12.318,22.992,26.084,37.135
0,0,-27.117,8.1556,28.317,35.537
0,0,-10.162,4.7121,11.201,12.602
0,0,14.655,3.1764,14.995,25.653
0,0,1.2131,7.7759,7.87,11.722
0,0,8.2032,26.441,27.685,37.668
0,0,11.671,-2.4981,11.935,18.764
0,0,13.271,-2.7023,13.543,20.618
0,0,-3.2492,4.4542,5.5134,7.216
0,0,-1.3741,7.7639,7.8845,12.977
0,0,22.064,19.19,29.242,46.771
0,0,-12.187,8.2405,14.712,18.357
0,0,17.106,14.284,22.285,39.766
0,0,-13.66,19.981,24.204,42.184
0,0,1.6447,10.454,10.583,16.67
0,0,5.8499,23.261,23.986,32.486
0,0,-8.9293,21.715,23.479,32.302
0,0,4.7363,19.809,20.367,28.355
0,0,4.1962,-2.7175,4.9993,15.796
0,0,15.232,18.109,23.663,38.864
0,0,-17.622,-2.284,17.769,23.255
0,0,-3.9751,4.3783,5.9136,7.372
0,0,-5.4034,11.508,12.713,21.097
0,0,20.255,3.8575,20.619,44.375
0,0,13.782,5.7944,14.951,26.982
0,0,3.2236,14.127,14.49,24.301
0,0,16.822,4.7145,17.47,29.443
0,0,15.396,18.712,24.231,38.932
0,0,-15.635,3.9404,16.124,21.388
0,0,3.5936,4.4347,5.7079,9.058
0,0,8.8006,6.4819,10.93,24.922
0,0,-0.65928,12.372,12.389,22.923
0,0,-20.072,9.4195,22.172,29.036
0,0,17.888,1.9404,17.992,30.292
0,0,-11.432,4.5172,12.292,14.519
0,0,16.913,8.3797,18.875,33.981
0,0,1.9397,12.586,12.735,20.368
0,0,22.064,19.174,29.231,46.787
0,0,-5.4885,5.1206,7.5063,8.998
0,0,15.008,-1.0732,15.046,22.635
0,0,-26.776,7.2414,27.738,34.354
0,0,-0.62268,23.514,23.522,41.147
0,0,7.7417,26.485,27.593,36.854
0,0,-24.619,-1.694,24.677,34.222
0,0,3.2327,11.053,11.516,17.708
0,0,-9.9961,2.7554,10.369,16.455
0,0,19.573,9.4465,21.734,37.974
0,0,-6.2007,26.913,27.618,38.699
0,0,7.7799,12.965,15.12,26.499
0,0,-18.244,12.27,21.986,36.413
0,0,12.868,1.9903,13.021,25.315
0,0,-13.221,2.7781,13.509,22.101
0,0,-14.403,15.992,21.522,39.986
0,0,-16.984,19.638,25.964,35.013
0,0,-26.264,1.7639,26.323,36.136
0,0,-21.484,11.921,24.569,37.873
0,0,-2.9198,9.6034,10.037,19.73
0,0,-12.556,10.061,16.09,20.325
0,0,-16.442,19.944,25.847,35.826
0,0,1.3822,12.267,12.345,20.007
0,0,15.811,0.0097373,15.811,23.906
0,0,7.0704,3.3326,7.8164,14.216
0,0,14.039,19.859,24.32,41.317
0,0,10.707,-0.40544,10.714,19.93
0,0,16.709,0.86684,16.732,30.238
0,0,-9.587,13.928,16.909,24.645
0,0,-9.6987,8.4103,12.837,15.979
0,0,-7.3232,9.6224,12.092,17.463
0,0,21.743,19.963,29.517,45.919
0,0,11.045,15.283,18.856,33.723
0,0,12.032,4.3136,12.781,29.279
0,0,2.9218,7.1308,7.7062,12.803
0,0,16.993,8.1105,18.829,34.924
0,0,-17.619,2.7293,17.829,24.029
0,0,7.5948,6.9281,10.28,28.181
0,0,5.946,19.583,20.465,29.016
0,0,-11.161,14.517,18.312,24.819
0,0,19.218,9.6542,21.507,38.034
0,0,-12.709,-3.4157,13.16,21.473
0,0,-8.9998,9.9458,13.413,16.692
0,0,-3.4615,10.115,10.691,19.351
0,0,3.7991,8.679,9.4741,15.028
0,0,8.7462,0.7218,8.7759,16.635
0,0,3.8746,10.88,11.55,19.462
0,0,16.868,-0.73544,16.884,24.927
0,0,-1.4513,12.952,13.033,24.434
0,0,2.9127,7.2669,7.8289,13.031
0,0,-13.941,5.0037,14.812,19.396
0,0,1.8972,22.378,22.459,33.102
0,0,5.1876,1.3625,5.3636,15.453
0,0,9.5211,2.5341,9.8526,20.268
0,0,0.9121,10.533,10.572,15.144
0,0,6.385,1.7384,6.6174,16.315
0,0,27.413,9.6101,29.048,47.774
0,0,-13.512,6.4933,14.991,17.128
0,0,4.6065,9.9597,10.973,20.831
0,0,-1.5178,24.992,25.038,43.348
0,0,17.589,10.232,20.349,40.082
0,0,-1.0106,5.9582,6.0433,9.144
0,0,0.12617,19.113,19.114,28.449
0,0,-22.602,6.3733,23.483,29.386
0,0,16.622,9.7763,19.284,35.437
0,0,26.028,3.9048,26.319,42.439
0,0,-9.7786,4.6181,10.814,12.389
0,0,10.585,-0.32465,10.59,17.222
0,0,11.483,15.202,19.051,33.198
0,0,-5.7059,28.991,29.548,43.77
0,0,19.807,17.581,26.484,43.467
0,0,8.9094,-0.89178,8.9539,15.335
0,0,2.3164,18.262,18.409,27.479
0,0,18.665,10.701,21.515,39.307
0,0,-15.592,2.6415,15.814,22.742
0,0,-13.663,10.464,17.21,27.517
totalTravelDist=3066.995
roadLength=592.6373
sumNormTravelDist=186.6728
n=115
