#downtownX, downtownY, pathDXfromDowntown, pathDYfromDowntown,  r, travelDist
0,0,9.0634,-3.7433,9.806,15.874
0,0,-10.255,20.163,22.621,44.335
0,0,-27.156,8.3476,28.41,36.519
0,0,-10.146,4.708,11.185,24.205
0,0,14.639,3.2389,14.993,24.496
0,0,1.2071,7.7712,7.8644,10.025
0,0,8.2725,26.514,27.775,32.149
0,0,-11.106,-8.6117,14.054,16.056
0,0,11.692,-2.474,11.951,16.603
0,0,-3.8445,-4.6784,6.0554,7.922
0,0,-20.255,-15.012,25.212,33.123
0,0,-19.389,-9.3164,21.511,30.132
0,0,7.6508,13.799,15.778,27.241
0,0,-13.489,-6.034,14.777,18.331
0,0,-3.4153,-5.1581,6.1863,8.46
0,0,13.317,-2.7222,13.593,15.994
0,0,-3.3374,4.3879,5.5128,6.935
0,0,-9.7542,-17.271,19.835,24.459
0,0,-6.3093,-8.0456,10.224,13.742
0,0,-1.426,7.7598,7.8898,9.718
0,0,21.884,19.283,29.168,40.824
0,0,-12.135,8.2623,14.681,28.966
0,0,-7.9663,-6.6359,10.368,12.589
0,0,16.785,14.384,22.105,32.451
0,0,-13.661,19.92,24.154,43.336
0,0,-7.5373,-23.826,24.99,29.919
0,0,1.6672,10.604,10.735,15.361
0,0,6.1752,23.132,23.942,28.714
0,0,23.181,11.56,25.903,34.543
0,0,4.3375,19.85,20.318,23.273
0,0,4.1528,-2.7618,4.9873,6.979
0,0,6.8238,-19.14,20.32,34.908
0,0,14.928,18.096,23.458,36.188
0,0,10.912,-6.7405,12.826,18.709
0,0,24.256,-12.535,27.304,33.72
0,0,-17.63,-2.2075,17.767,21.477
0,0,7.6733,-13.371,15.416,26.832
0,0,-3.9302,4.3954,5.8963,7.488
0,0,0.34632,-7.6052,7.613,10.765
0,0,2.2757,-17.255,17.404,19.999
0,0,-5.58,11.685,12.949,16.287
0,0,23.175,11.53,25.885,34.573
0,0,20.288,3.7759,20.636,29.348
0,0,-2.3975,-6.5082,6.9358,9.577
0,0,13.86,5.7787,15.017,22.569
0,0,18.337,-18.217,25.848,33.148
0,0,3.2489,14.045,14.416,19.336
0,0,16.778,4.8374,17.461,25.993
0,0,0.028185,-11.711,11.711,15.301
0,0,-19.531,1.9656,19.629,23.889
0,0,10.829,-10.241,14.904,21.77
0,0,17.48,-9.7309,20.006,29.103
0,0,15.324,18.772,24.233,38.031
0,0,-15.632,3.9697,16.128,20.011
0,0,3.5169,4.3685,5.6083,7.474
0,0,8.8502,6.5947,11.037,20.615
0,0,-0.58688,12.671,12.684,15.348
0,0,-20.07,9.4152,22.169,35.732
0,0,17.9,2.0211,18.014,26.191
0,0,-11.367,4.5116,12.23,24.523
0,0,16.998,8.4582,18.986,26.49
0,0,1.9661,12.606,12.758,18.222
0,0,8.3605,-11.742,14.414,25.363
0,0,21.921,19.23,29.16,40.759
0,0,-5.467,5.1258,7.4941,9.58
0,0,-17.369,-16.357,23.859,30.669
0,0,15.005,-1.146,15.049,18.752
0,0,-26.746,7.4175,27.756,35.956
0,0,-0.56806,23.564,23.571,33.334
0,0,-2.7131,-15.236,15.476,22.632
0,0,10.092,-14.87,17.971,26.745
0,0,-18.226,-19.859,26.955,38.225
0,0,7.5865,26.477,27.542,32.521
0,0,-4.5516,-27.89,28.259,35.337
0,0,20.61,-7.1817,21.825,26.194
0,0,-24.623,-1.6425,24.677,44.888
0,0,3.2033,11.097,11.55,15.391
0,0,18.791,-14.685,23.849,33.234
0,0,-14.872,-6.8906,16.391,19.834
0,0,-9.9761,2.7662,10.353,21.801
0,0,10.757,-3.7794,11.402,16.478
0,0,19.415,9.8031,21.749,30.266
0,0,-18.738,-17.847,25.878,33.847
0,0,-15.54,-25.412,29.786,35.059
0,0,7.7742,12.879,15.044,27.732
0,0,-18.16,12.351,21.962,35.334
0,0,28.212,-6.2906,28.905,32.561
0,0,-3.5841,-7.635,8.4344,14.145
0,0,12.867,2.0091,13.023,15.896
0,0,-13.205,2.8055,13.5,16.897
0,0,-14.272,15.999,21.44,39.267
0,0,-11.944,-7.961,14.354,17.971
0,0,-1.4981,-5.0845,5.3006,6.175
0,0,-16.699,19.56,25.719,44.534
0,0,-26.119,1.8596,26.185,30.602
0,0,6.6818,-12.366,14.056,24.402
0,0,-21.078,11.986,24.248,38.351
0,0,-2.8414,9.5909,10.003,12.411
0,0,-12.902,10.008,16.329,31.57
0,0,1.3506,12.291,12.365,16.663
0,0,15.796,0.14096,15.797,19.532
0,0,7.0641,3.3381,7.8131,18.681
0,0,-4.8633,-9.1896,10.397,14.084
0,0,14.128,19.956,24.451,34.248
0,0,10.731,-0.46361,10.741,15.065
0,0,16.788,0.83979,16.809,27.278
0,0,-9.6091,13.913,16.909,38.984
0,0,2.907,-28.959,29.105,43.322
0,0,-9.6139,8.3886,12.759,32.389
0,0,14.106,-15.619,21.045,30.079
0,0,-13.999,-9.2817,16.796,19.663
0,0,-7.3115,9.6333,12.094,14.664
0,0,21.534,20.143,29.487,41.763
0,0,10.907,15.092,18.621,30.74
0,0,-10.141,9.2881,13.752,33.008
totalTravelDist=2881.767
roadLength=730.5891
sumNormTravelDist=167.6809
n=115
